mc20_13TeV.346526.PowhegHerwig7EvtGen_H7UE_NNPDF30ME_ttH125_gamgam.deriv.DAOD_PHYSLITE.e7488_s3681_r13167_p6490
mc20_13TeV.346526.PowhegHerwig7EvtGen_H7UE_NNPDF30ME_ttH125_gamgam.deriv.DAOD_PHYSLITE.e7488_s3681_r13144_p6490
mc20_13TeV.346526.PowhegHerwig7EvtGen_H7UE_NNPDF30ME_ttH125_gamgam.deriv.DAOD_PHYSLITE.e7488_s3681_r13145_p6490
