mc23_13p6TeV.700777.Sh_2214_Wenu_maxHTpTV2_BFilter.deriv.DAOD_PHYSLITE.e8514_s4159_r15224_p6491
mc23_13p6TeV.700777.Sh_2214_Wenu_maxHTpTV2_BFilter.deriv.DAOD_PHYSLITE.e8514_s4162_r14622_p6491


mc23_13p6TeV.700778.Sh_2214_Wenu_maxHTpTV2_CFilterBVeto.deriv.DAOD_PHYSLITE.e8514_s4159_r15224_p6491
mc23_13p6TeV.700778.Sh_2214_Wenu_maxHTpTV2_CFilterBVeto.deriv.DAOD_PHYSLITE.e8514_s4162_r14622_p6491


mc23_13p6TeV.700779.Sh_2214_Wenu_maxHTpTV2_CVetoBVeto.deriv.DAOD_PHYSLITE.e8514_s4159_r15530_p6491
mc23_13p6TeV.700779.Sh_2214_Wenu_maxHTpTV2_CVetoBVeto.deriv.DAOD_PHYSLITE.e8514_s4162_r15540_p6491


mc23_13p6TeV.700780.Sh_2214_Wmunu_maxHTpTV2_BFilter.deriv.DAOD_PHYSLITE.e8514_s4159_r15224_p6491
mc23_13p6TeV.700780.Sh_2214_Wmunu_maxHTpTV2_BFilter.deriv.DAOD_PHYSLITE.e8514_s4162_r14622_p6491


mc23_13p6TeV.700781.Sh_2214_Wmunu_maxHTpTV2_CFilterBVeto.deriv.DAOD_PHYSLITE.e8514_s4159_r15224_p6491
mc23_13p6TeV.700781.Sh_2214_Wmunu_maxHTpTV2_CFilterBVeto.deriv.DAOD_PHYSLITE.e8514_s4162_r14622_p6491


mc23_13p6TeV.700782.Sh_2214_Wmunu_maxHTpTV2_CVetoBVeto.deriv.DAOD_PHYSLITE.e8514_s4159_r15530_p6491
mc23_13p6TeV.700782.Sh_2214_Wmunu_maxHTpTV2_CVetoBVeto.deriv.DAOD_PHYSLITE.e8514_s4162_r15540_p6491


mc23_13p6TeV.700783.Sh_2214_Wtaunu_maxHTpTV2_BFilter.deriv.DAOD_PHYSLITE.e8514_s4159_r15224_p6491
mc23_13p6TeV.700783.Sh_2214_Wtaunu_maxHTpTV2_BFilter.deriv.DAOD_PHYSLITE.e8514_s4162_r14622_p6491


mc23_13p6TeV.700784.Sh_2214_Wtaunu_maxHTpTV2_CFilterBVeto.deriv.DAOD_PHYSLITE.e8514_s4159_r15224_p6491
mc23_13p6TeV.700784.Sh_2214_Wtaunu_maxHTpTV2_CFilterBVeto.deriv.DAOD_PHYSLITE.e8514_s4162_r14622_p6491


mc23_13p6TeV.700785.Sh_2214_Wtaunu_maxHTpTV2_CVetoBVeto.deriv.DAOD_PHYSLITE.e8514_s4159_r15530_p6491
mc23_13p6TeV.700785.Sh_2214_Wtaunu_maxHTpTV2_CVetoBVeto.deriv.DAOD_PHYSLITE.e8514_s4162_r15540_p6491


mc23_13p6TeV.700786.Sh_2214_Zee_maxHTpTV2_BFilter.deriv.DAOD_PHYSLITE.e8514_s4159_r15224_p6491
mc23_13p6TeV.700786.Sh_2214_Zee_maxHTpTV2_BFilter.deriv.DAOD_PHYSLITE.e8514_s4162_r14622_p6491


mc23_13p6TeV.700787.Sh_2214_Zee_maxHTpTV2_CFilterBVeto.deriv.DAOD_PHYSLITE.e8514_s4159_r15224_p6491
mc23_13p6TeV.700787.Sh_2214_Zee_maxHTpTV2_CFilterBVeto.deriv.DAOD_PHYSLITE.e8514_s4162_r14622_p6491


mc23_13p6TeV.700788.Sh_2214_Zee_maxHTpTV2_CVetoBVeto.deriv.DAOD_PHYSLITE.e8514_s4159_r15530_p6491
mc23_13p6TeV.700788.Sh_2214_Zee_maxHTpTV2_CVetoBVeto.deriv.DAOD_PHYSLITE.e8514_s4162_r15540_p6491


mc23_13p6TeV.700789.Sh_2214_Zmumu_maxHTpTV2_BFilter.deriv.DAOD_PHYSLITE.e8514_s4159_r15224_p6491
mc23_13p6TeV.700789.Sh_2214_Zmumu_maxHTpTV2_BFilter.deriv.DAOD_PHYSLITE.e8514_s4162_r14622_p6491


mc23_13p6TeV.700790.Sh_2214_Zmumu_maxHTpTV2_CFilterBVeto.deriv.DAOD_PHYSLITE.e8514_s4159_r15224_p6491
mc23_13p6TeV.700790.Sh_2214_Zmumu_maxHTpTV2_CFilterBVeto.deriv.DAOD_PHYSLITE.e8514_s4162_r14622_p6491


mc23_13p6TeV.700791.Sh_2214_Zmumu_maxHTpTV2_CVetoBVeto.deriv.DAOD_PHYSLITE.e8514_s4159_r15530_p6491
mc23_13p6TeV.700791.Sh_2214_Zmumu_maxHTpTV2_CVetoBVeto.deriv.DAOD_PHYSLITE.e8514_s4162_r15540_p6491


mc23_13p6TeV.700792.Sh_2214_Ztautau_maxHTpTV2_BFilter.deriv.DAOD_PHYSLITE.e8514_s4159_r15224_p6491
mc23_13p6TeV.700792.Sh_2214_Ztautau_maxHTpTV2_BFilter.deriv.DAOD_PHYSLITE.e8514_s4162_r14622_p6491


mc23_13p6TeV.700793.Sh_2214_Ztautau_maxHTpTV2_CFilterBVeto.deriv.DAOD_PHYSLITE.e8514_s4159_r15224_p6491
mc23_13p6TeV.700793.Sh_2214_Ztautau_maxHTpTV2_CFilterBVeto.deriv.DAOD_PHYSLITE.e8514_s4162_r14622_p6491


mc23_13p6TeV.700794.Sh_2214_Ztautau_maxHTpTV2_CVetoBVeto.deriv.DAOD_PHYSLITE.e8514_s4159_r15530_p6491
mc23_13p6TeV.700794.Sh_2214_Ztautau_maxHTpTV2_CVetoBVeto.deriv.DAOD_PHYSLITE.e8514_s4162_r15540_p6491


mc23_13p6TeV.700795.Sh_2214_Znunu_pTV2_BFilter.deriv.DAOD_PHYSLITE.e8514_s4159_r15224_p6491
mc23_13p6TeV.700795.Sh_2214_Znunu_pTV2_BFilter.deriv.DAOD_PHYSLITE.e8514_s4162_r14622_p6491


mc23_13p6TeV.700796.Sh_2214_Znunu_pTV2_CFilterBVeto.deriv.DAOD_PHYSLITE.e8514_s4159_r15224_p6491
mc23_13p6TeV.700796.Sh_2214_Znunu_pTV2_CFilterBVeto.deriv.DAOD_PHYSLITE.e8514_s4162_r14622_p6491


mc23_13p6TeV.700797.Sh_2214_Znunu_pTV2_CVetoBVeto.deriv.DAOD_PHYSLITE.e8514_s4159_r15530_p6491
mc23_13p6TeV.700797.Sh_2214_Znunu_pTV2_CVetoBVeto.deriv.DAOD_PHYSLITE.e8514_s4162_r15540_p6491

