mc23_13p6TeV.525357.MGPy8EG_A14NNPDF30NLO_ttWW.deriv.DAOD_PHYSLITE.e8532_s4159_r15224_p6491
mc23_13p6TeV.525357.MGPy8EG_A14NNPDF30NLO_ttWW.deriv.DAOD_PHYSLITE.e8532_s4162_r14622_p6491


mc23_13p6TeV.525358.MGPy8EG_A14NNPDF30NLO_ttWZ.deriv.DAOD_PHYSLITE.e8532_s4159_r15224_p6491
mc23_13p6TeV.525358.MGPy8EG_A14NNPDF30NLO_ttWZ.deriv.DAOD_PHYSLITE.e8532_s4162_r14622_p6491


mc23_13p6TeV.525360.MGPy8EG_A14NNPDF30NLO_ttWH.deriv.DAOD_PHYSLITE.e8532_s4159_r15224_p6491
mc23_13p6TeV.525360.MGPy8EG_A14NNPDF30NLO_ttWH.deriv.DAOD_PHYSLITE.e8532_s4162_r14622_p6491


mc23_13p6TeV.525361.MGPy8EG_A14NNPDF30NLO_ttZZ.deriv.DAOD_PHYSLITE.e8532_s4159_r15224_p6491
mc23_13p6TeV.525361.MGPy8EG_A14NNPDF30NLO_ttZZ.deriv.DAOD_PHYSLITE.e8532_s4162_r14622_p6491
