mc20_13TeV.700326.Sh_2211_Ztautau_LL_maxHTpTV2_BFilter.deriv.DAOD_PHYS.e8351_s3681_r13144_p6266
mc20_13TeV.700326.Sh_2211_Ztautau_LL_maxHTpTV2_BFilter.deriv.DAOD_PHYS.e8351_s3681_r13145_p6266
mc20_13TeV.700326.Sh_2211_Ztautau_LL_maxHTpTV2_BFilter.deriv.DAOD_PHYS.e8351_s3681_r13167_p6266

mc20_13TeV.700327.Sh_2211_Ztautau_LL_maxHTpTV2_CFilterBVeto.deriv.DAOD_PHYS.e8351_s3681_r13144_p6266
mc20_13TeV.700327.Sh_2211_Ztautau_LL_maxHTpTV2_CFilterBVeto.deriv.DAOD_PHYS.e8351_s3681_r13145_p6266
mc20_13TeV.700327.Sh_2211_Ztautau_LL_maxHTpTV2_CFilterBVeto.deriv.DAOD_PHYS.e8351_s3681_r13167_p6266

mc20_13TeV.700328.Sh_2211_Ztautau_LL_maxHTpTV2_CVetoBVeto.deriv.DAOD_PHYS.e8351_s3681_r13144_p6266
mc20_13TeV.700328.Sh_2211_Ztautau_LL_maxHTpTV2_CVetoBVeto.deriv.DAOD_PHYS.e8351_s3681_r13145_p6266
mc20_13TeV.700328.Sh_2211_Ztautau_LL_maxHTpTV2_CVetoBVeto.deriv.DAOD_PHYS.e8351_s3681_r13167_p6266

mc20_13TeV.700329.Sh_2211_Ztautau_LH_maxHTpTV2_BFilter.deriv.DAOD_PHYS.e8351_s3681_r13144_p6266
mc20_13TeV.700329.Sh_2211_Ztautau_LH_maxHTpTV2_BFilter.deriv.DAOD_PHYS.e8351_s3681_r13145_p6266
mc20_13TeV.700329.Sh_2211_Ztautau_LH_maxHTpTV2_BFilter.deriv.DAOD_PHYS.e8351_s3681_r13167_p6266

mc20_13TeV.700330.Sh_2211_Ztautau_LH_maxHTpTV2_CFilterBVeto.deriv.DAOD_PHYS.e8351_s3681_r13144_p6266
mc20_13TeV.700330.Sh_2211_Ztautau_LH_maxHTpTV2_CFilterBVeto.deriv.DAOD_PHYS.e8351_s3681_r13145_p6266
mc20_13TeV.700330.Sh_2211_Ztautau_LH_maxHTpTV2_CFilterBVeto.deriv.DAOD_PHYS.e8351_s3681_r13167_p6266

mc20_13TeV.700331.Sh_2211_Ztautau_LH_maxHTpTV2_CVetoBVeto.deriv.DAOD_PHYS.e8351_s3681_r13144_p6266
mc20_13TeV.700331.Sh_2211_Ztautau_LH_maxHTpTV2_CVetoBVeto.deriv.DAOD_PHYS.e8351_s3681_r13145_p6266
mc20_13TeV.700331.Sh_2211_Ztautau_LH_maxHTpTV2_CVetoBVeto.deriv.DAOD_PHYS.e8351_s3681_r13167_p6266

mc20_13TeV.700332.Sh_2211_Ztautau_HH_maxHTpTV2_BFilter.deriv.DAOD_PHYS.e8351_s3681_r13144_p6266
mc20_13TeV.700332.Sh_2211_Ztautau_HH_maxHTpTV2_BFilter.deriv.DAOD_PHYS.e8351_s3681_r13145_p6266
mc20_13TeV.700332.Sh_2211_Ztautau_HH_maxHTpTV2_BFilter.deriv.DAOD_PHYS.e8351_s3681_r13167_p6266

mc20_13TeV.700333.Sh_2211_Ztautau_HH_maxHTpTV2_CFilterBVeto.deriv.DAOD_PHYS.e8351_s3681_r13144_p6266
mc20_13TeV.700333.Sh_2211_Ztautau_HH_maxHTpTV2_CFilterBVeto.deriv.DAOD_PHYS.e8351_s3681_r13145_p6266
mc20_13TeV.700333.Sh_2211_Ztautau_HH_maxHTpTV2_CFilterBVeto.deriv.DAOD_PHYS.e8351_s3681_r13167_p6266

mc20_13TeV.700334.Sh_2211_Ztautau_HH_maxHTpTV2_CVetoBVeto.deriv.DAOD_PHYS.e8351_s3681_r13144_p6266
mc20_13TeV.700334.Sh_2211_Ztautau_HH_maxHTpTV2_CVetoBVeto.deriv.DAOD_PHYS.e8351_s3681_r13145_p6266
mc20_13TeV.700334.Sh_2211_Ztautau_HH_maxHTpTV2_CVetoBVeto.deriv.DAOD_PHYS.e8351_s3681_r13167_p6266

